4498500 pairs
pool size 30
_________
Test 1 [just map]...
723.564386129
Test 2 [map_async]...
731.38271594
Test 2 [map_async chunk]...
732.694258928
Test 3 [map_async] (group size 10000)...
729.065014124
Test 3 [map_async chunk] (group size 10000)...
727.690416098
Test 4 [imap_unordered]...
1144.39197111
Test 4 [imap_unordered chunk]...
728.113543034
Test 4 [imap_unordered] (group size 10000)...
703.11566782
Test 4 [imap_unordered chunk] (group size 10000)...
722.646416903
