1999000 pairs
pool size 30
_________
Test 1 [just map]...
159.622519016
Test 2 [map_async]...
161.635364056
Test 2 [map_async chunk]...
162.623622179
Test 3 [map_async] (group size 10000)...
161.846086979
Test 3 [map_async chunk] (group size 10000)...
158.890137911
Test 4 [imap_unordered]...
473.976208925
Test 4 [imap_unordered chunk]...
161.092337847
Test 4 [imap_unordered] (group size 10000)...
156.314198971
Test 4 [imap_unordered chunk] (group size 10000)...
156.201047182
